{
  "jobId": "123",
  "transcript": [
    {
      "start": "0.0",
      "end": "3.0",
      "content": "hello how are you",
      "speaker": "1",
      "type": "none"
    },
    {
      "start": "3.0",
      "end": "5.0",
      "content": "hello",
      "speaker": "2",
      "type": "none"
    },
    {
      "start": "5.0",
      "end": "9.0",
      "content": "i am not feeling well",
      "speaker": "2",
      "type": "problem"
    },
    {
      "start": "9.0",
      "end": "11.0",
      "content": "i have a headache",
      "speaker": "2",
      "type": "symptom"
    },
    {
      "start": "11.0",
      "end": "13.5",
      "content": "sorry to hear that",
      "speaker": "1",
      "type": "none"
    },
    {
      "start": "13.5",
      "end": "16.0",
      "content": "i am taking advil nowadays",
      "speaker": "2",
      "type": "medication"
    },
    {
      "start": "16.0",
      "end": "19.0",
      "content": "how long have you felt that way",
      "speaker": "1",
      "type": "none"
    },
    {
      "start": "19.0",
      "end": "23.5",
      "content": "i been feeling like this for months",
      "speaker": "2",
      "type": "history"
    },
    {
      "start": "23.5",
      "end": "26.0",
      "content": "i have also felt body aches",
      "speaker": "2",
      "type": "symptoms"
    },
    {
      "start": "26.0",
      "end": "28.2",
      "content": "lets try tylenol as well",
      "speaker": "1",
      "type": "medication"
    },
    {
      "start": "28.2",
      "end": "31.0",
      "content": "i had a car accident long  ago",
      "speaker": "2",
      "type": "history"
    },
    {
      "start": "31.0",
      "end": "34.0",
      "content": "that explains the body aches",
      "speaker": "1",
      "type": "none"
    },
    {
      "start": "34.0",
      "end": "37.0",
      "content": "I also had asthma",
      "speaker": "2",
      "type": "history"
    }
  ]
}